Data Mining
…
lm_fit <- fit(lm_wflow, ames_train)
```

---

```r
ames_test_res <- bind_cols(
  predict(lm_fit, new_data = ames_test %>% select(-Sale_Price)), 
  ames_test %>% select(Sale_Price))
ames_test_res
```

```
# A tibble: 588 × 2
   .pred Sale_Price
   <dbl>      <dbl>
 1  5.07       5.02
 2  5.17       5.24
 3  5.28       5.28
 4  5.05       5.06
 5  5.51       5.60
 6  5.42       5.33
 7  5.55       5.79
 8  5.33       5.24
 9  5.23       5.27
10  5.53       5.52
# … with 578 more rows
```
…
---

```r
assess_res <- collect_predictions(rf_res)
assess_res
```

```
# A tibble: 2,342 × 5
   id     .pred  .row Sale_Price .config             
   <chr>  <dbl> <int>      <dbl> <chr>               
 1 Fold01  5.14    12       5.11 Preprocessor1_Model1
 2 Fold01  5.15    49       5.10 Preprocessor1_Model1
 3 Fold01  4.96    54       4.93 Preprocessor1_Model1
 4 Fold01  5.04    84       5.05 Preprocessor1_Model1
 5 Fold01  5.19    99       5.05 Preprocessor1_Model1
 6 Fold01  5.10   116       4.98 Preprocessor1_Model1
 7 Fold01  4.97   120       4.97 Preprocessor1_Model1
 8 Fold01  5.12   122       5.11 Preprocessor1_Model1
 9 Fold01  5.09   124       5.04 Preprocessor1_Model1
10 Fold01  4.97   140       4.96 Preprocessor1_Model1
# … with 2,332 more rows
```
…
