Data Mining
…
---

```r
assess_res <- collect_predictions(rf_res)
assess_res
```

```
# A tibble: 2,342 × 5
   id     .pred  .row Sale_Price .config             
   <chr>  <dbl> <int>      <dbl> <chr>               
 1 Fold01  5.14    12       5.11 Preprocessor1_Model1
 2 Fold01  5.15    49       5.10 Preprocessor1_Model1
 3 Fold01  4.96    54       4.93 Preprocessor1_Model1
 4 Fold01  5.04    84       5.05 Preprocessor1_Model1
 5 Fold01  5.19    99       5.05 Preprocessor1_Model1
 6 Fold01  5.10   116       4.98 Preprocessor1_Model1
 7 Fold01  4.97   120       4.97 Preprocessor1_Model1
 8 Fold01  5.12   122       5.11 Preprocessor1_Model1
 9 Fold01  5.09   124       5.04 Preprocessor1_Model1
10 Fold01  4.97   140       4.96 Preprocessor1_Model1
# … with 2,332 more rows
```
…
